tests/counters_4/trace[2]-simulate_not_reset.vcd
$date
Tuesday 2019/01/08 17:37:59
$end
$version
CoSA
$end
$timescale
1 ns
$end
$var reg 1 v0 clk[0:0] $end
$var reg 1 v1 clk1[0:0] $end
$var reg 1 v2 clk2[0:0] $end
$var reg 1 v3 clk3[0:0] $end
$var reg 1 v4 clk4[0:0] $end
$var reg 16 v5 out[15:0] $end
$var reg 1 v6 reset_done[0:0] $end
$var reg 1 v7 reset_performed[0:0] $end
$var reg 1 v8 rst[0:0] $end
$var reg 2 v9 sel[1:0] $end
$var reg 8 v10 val1[7:0] $end
$var reg 4 v11 val2[3:0] $end
$var reg 4 v12 val3[3:0] $end
$var reg 2 v13 val4[1:0] $end
$scope module adder $end
$var reg 8 v14 in1[7:0] $end
$upscope $end
$scope module adder $end
$var reg 4 v15 in2[3:0] $end
$upscope $end
$scope module adder $end
$var reg 4 v16 in3[3:0] $end
$upscope $end
$scope module adder $end
$var reg 2 v17 in4[1:0] $end
$upscope $end
$scope module adder $end
$var reg 16 v18 out[15:0] $end
$upscope $end
$scope module autoclk2fflogic $end
$var reg 1 v19 cc_c_222_c_execute24[0:0] $end
$upscope $end
$scope module autoclk2fflogic $end
$var reg 1 v20 cc_c_222_c_execute35[0:0] $end
$upscope $end
$scope module autoclk2fflogic $end
$var reg 1 v21 cc_c_222_c_execute46[0:0] $end
$upscope $end
$scope module autoclk2fflogic $end
$var reg 1 v22 cc_c_222_c_execute57[0:0] $end
$upscope $end
$scope module autoclk2fflogic $end
$var reg 1 v23 cc_c_222_c_execute68[0:0] $end
$upscope $end
$scope module autoclk2fflogic $end
$var reg 8 v24 cc_c_245_c_execute28[7:0] $end
$upscope $end
$scope module autoclk2fflogic $end
$var reg 4 v25 cc_c_245_c_execute39[3:0] $end
$upscope $end
$scope module autoclk2fflogic $end
$var reg 4 v26 cc_c_245_c_execute50[3:0] $end
$upscope $end
$scope module autoclk2fflogic $end
$var reg 2 v27 cc_c_245_c_execute61[1:0] $end
$upscope $end
$scope module autoclk2fflogic $end
$var reg 2 v28 cc_c_245_c_execute72[1:0] $end
$upscope $end
$scope module autoclk2fflogic $end
$var reg 8 v29 cc_c_246_c_execute29[7:0] $end
$upscope $end
$scope module autoclk2fflogic $end
$var reg 4 v30 cc_c_246_c_execute40[3:0] $end
$upscope $end
$scope module autoclk2fflogic $end
$var reg 4 v31 cc_c_246_c_execute51[3:0] $end
$upscope $end
$scope module autoclk2fflogic $end
$var reg 2 v32 cc_c_246_c_execute62[1:0] $end
$upscope $end
$scope module autoclk2fflogic $end
$var reg 2 v33 cc_c_246_c_execute73[1:0] $end
$upscope $end
$scope module counter_1 $end
$var reg 1 v34 clk[0:0] $end
$upscope $end
$scope module counter_1 $end
$var reg 8 v35 out[7:0] $end
$upscope $end
$scope module counter_1 $end
$var reg 1 v36 rst[0:0] $end
$upscope $end
$scope module counter_2 $end
$var reg 1 v37 clk[0:0] $end
$upscope $end
$scope module counter_2 $end
$var reg 4 v38 out[3:0] $end
$upscope $end
$scope module counter_2 $end
$var reg 1 v39 rst[0:0] $end
$upscope $end
$scope module counter_3 $end
$var reg 1 v40 clk[0:0] $end
$upscope $end
$scope module counter_3 $end
$var reg 4 v41 out[3:0] $end
$upscope $end
$scope module counter_3 $end
$var reg 1 v42 rst[0:0] $end
$upscope $end
$scope module counter_4 $end
$var reg 1 v43 clk[0:0] $end
$upscope $end
$scope module counter_4 $end
$var reg 2 v44 out[1:0] $end
$upscope $end
$scope module counter_4 $end
$var reg 1 v45 rst[0:0] $end
$upscope $end
$scope module counter_clk $end
$var reg 1 v46 clk[0:0] $end
$upscope $end
$scope module counter_clk $end
$var reg 2 v47 out[1:0] $end
$upscope $end
$scope module counter_clk $end
$var reg 1 v48 rst[0:0] $end
$upscope $end
$upscope $end
$upscope $end
$enddefinitions $end
#0
b0 v0
b1 v1
b0 v2
b0 v3
b0 v4
b0000000000000000 v5
b0 v6
b0 v7
b0 v8
b00 v9
b00000000 v10
b0000 v11
b0000 v12
b00 v13
b00000000 v14
b0000 v15
b0000 v16
b00 v17
b0000000000000000 v18
b1 v19
b1 v20
b1 v21
b1 v22
b1 v23
b10000000 v24
b1000 v25
b1000 v26
b10 v27
b00 v28
b00000000 v29
b0000 v30
b0000 v31
b00 v32
b00 v33
b1 v34
b00000000 v35
b0 v36
b0 v37
b0000 v38
b0 v39
b0 v40
b0000 v41
b0 v42
b0 v43
b00 v44
b0 v45
b0 v46
b00 v47
b0 v48
#1
b1 v0
b1 v1
b0 v2
b0 v3
b0 v4
b0000000000000000 v5
b1 v6
b0 v7
b1 v8
b00 v9
b00000000 v10
b0000 v11
b0000 v12
b00 v13
b00000000 v14
b0000 v15
b0000 v16
b00 v17
b0000000000000000 v18
b1 v19
b0 v20
b0 v21
b0 v22
b0 v23
b00000001 v24
b0001 v25
b0001 v26
b01 v27
b01 v28
b00000000 v29
b0000 v30
b0000 v31
b00 v32
b00 v33
b1 v34
b00000000 v35
b1 v36
b0 v37
b0000 v38
b1 v39
b0 v40
b0000 v41
b1 v42
b0 v43
b00 v44
b1 v45
b1 v46
b00 v47
b1 v48
#2
b0 v0
b1 v1
b0 v2
b0 v3
b0 v4
b0000000000000000 v5
b0 v6
b1 v7
b0 v8
b00 v9
b00000000 v10
b0000 v11
b0000 v12
b00 v13
b00000000 v14
b0000 v15
b0000 v16
b00 v17
b0000000000000000 v18
b1 v19
b0 v20
b0 v21
b0 v22
b1 v23
b00000001 v24
b0001 v25
b0001 v26
b01 v27
b01 v28
b00000000 v29
b0000 v30
b0000 v31
b00 v32
b00 v33
b1 v34
b00000000 v35
b0 v36
b0 v37
b0000 v38
b0 v39
b0 v40
b0000 v41
b0 v42
b0 v43
b00 v44
b0 v45
b0 v46
b00 v47
b0 v48
#3
b1 v0
b0 v1
b1 v2
b0 v3
b0 v4
b0000000000000001 v5
b0 v6
b1 v7
b0 v8
b01 v9
b00000000 v10
b0001 v11
b0000 v12
b00 v13
b00000000 v14
b0001 v15
b0000 v16
b00 v17
b0000000000000001 v18
b1 v19
b0 v20
b0 v21
b0 v22
b0 v23
b00000001 v24
b0001 v25
b0001 v26
b01 v27
b01 v28
b00000000 v29
b0000 v30
b0000 v31
b00 v32
b00 v33
b0 v34
b00000000 v35
b0 v36
b1 v37
b0001 v38
b0 v39
b0 v40
b0000 v41
b0 v42
b0 v43
b00 v44
b0 v45
b1 v46
b01 v47
b0 v48
#4
b0 v0
b0 v1
b1 v2
b0 v3
b0 v4
b0000000000000001 v5
b0 v6
b1 v7
b0 v8
b01 v9
b00000000 v10
b0001 v11
b0000 v12
b00 v13
b00000000 v14
b0001 v15
b0000 v16
b00 v17
b0000000000000001 v18
b0 v19
b1 v20
b0 v21
b0 v22
b1 v23
b00000001 v24
b0010 v25
b0001 v26
b01 v27
b10 v28
b00000000 v29
b0001 v30
b0000 v31
b00 v32
b01 v33
b0 v34
b00000000 v35
b0 v36
b1 v37
b0001 v38
b0 v39
b0 v40
b0000 v41
b0 v42
b0 v43
b00 v44
b0 v45
b0 v46
b01 v47
b0 v48
#5
b1 v0
b0 v1
b0 v2
b1 v3
b0 v4
b0000000000000010 v5
b0 v6
b1 v7
b0 v8
b10 v9
b00000000 v10
b0001 v11
b0001 v12
b00 v13
b00000000 v14
b0001 v15
b0001 v16
b00 v17
b0000000000000010 v18
b0 v19
b1 v20
b0 v21
b0 v22
b0 v23
b00000001 v24
b0010 v25
b0001 v26
b01 v27
b10 v28
b00000000 v29
b0001 v30
b0000 v31
b00 v32
b01 v33
b0 v34
b00000000 v35
b0 v36
b0 v37
b0001 v38
b0 v39
b1 v40
b0001 v41
b0 v42
b0 v43
b00 v44
b0 v45
b1 v46
b10 v47
b0 v48
#6
b0 v0
b0 v1
b0 v2
b1 v3
b0 v4
b0000000000000010 v5
b0 v6
b1 v7
b0 v8
b10 v9
b00000000 v10
b0001 v11
b0001 v12
b00 v13
b00000000 v14
b0001 v15
b0001 v16
b00 v17
b0000000000000010 v18
b0 v19
b0 v20
b1 v21
b0 v22
b1 v23
b00000001 v24
b0010 v25
b0010 v26
b01 v27
b11 v28
b00000000 v29
b0001 v30
b0001 v31
b00 v32
b10 v33
b0 v34
b00000000 v35
b0 v36
b0 v37
b0001 v38
b0 v39
b1 v40
b0001 v41
b0 v42
b0 v43
b00 v44
b0 v45
b0 v46
b10 v47
b0 v48
#7
b1 v0
b0 v1
b0 v2
b0 v3
b1 v4
b0000000000000011 v5
b0 v6
b1 v7
b0 v8
b11 v9
b00000000 v10
b0001 v11
b0001 v12
b01 v13
b00000000 v14
b0001 v15
b0001 v16
b01 v17
b0000000000000011 v18
b0 v19
b0 v20
b1 v21
b0 v22
b0 v23
b00000001 v24
b0010 v25
b0010 v26
b01 v27
b11 v28
b00000000 v29
b0001 v30
b0001 v31
b00 v32
b10 v33
b0 v34
b00000000 v35
b0 v36
b0 v37
b0001 v38
b0 v39
b0 v40
b0001 v41
b0 v42
b1 v43
b01 v44
b0 v45
b1 v46
b11 v47
b0 v48
#8
b0 v0
b0 v1
b0 v2
b0 v3
b1 v4
b0000000000000011 v5
b0 v6
b1 v7
b0 v8
b11 v9
b00000000 v10
b0001 v11
b0001 v12
b01 v13
b00000000 v14
b0001 v15
b0001 v16
b01 v17
b0000000000000011 v18
b0 v19
b0 v20
b0 v21
b1 v22
b1 v23
b00000001 v24
b0010 v25
b0010 v26
b10 v27
b00 v28
b00000000 v29
b0001 v30
b0001 v31
b01 v32
b11 v33
b0 v34
b00000000 v35
b0 v36
b0 v37
b0001 v38
b0 v39
b0 v40
b0001 v41
b0 v42
b1 v43
b01 v44
b0 v45
b0 v46
b11 v47
b0 v48
#9
b1 v0
b1 v1
b0 v2
b0 v3
b0 v4
b0000000000000100 v5
b0 v6
b1 v7
b0 v8
b00 v9
b00000001 v10
b0001 v11
b0001 v12
b01 v13
b00000001 v14
b0001 v15
b0001 v16
b01 v17
b0000000000000100 v18
b0 v19
b0 v20
b0 v21
b1 v22
b0 v23
b00000001 v24
b0010 v25
b0010 v26
b10 v27
b00 v28
b00000000 v29
b0001 v30
b0001 v31
b01 v32
b11 v33
b1 v34
b00000001 v35
b0 v36
b0 v37
b0001 v38
b0 v39
b0 v40
b0001 v41
b0 v42
b0 v43
b01 v44
b0 v45
b1 v46
b00 v47
b0 v48
#10
b0 v0
b1 v1
b0 v2
b0 v3
b0 v4
b0000000000000100 v5
b0 v6
b1 v7
b0 v8
b00 v9
b00000001 v10
b0001 v11
b0001 v12
b01 v13
b00000001 v14
b0001 v15
b0001 v16
b01 v17
b0000000000000100 v18
b1 v19
b0 v20
b0 v21
b0 v22
b1 v23
b00000010 v24
b0010 v25
b0010 v26
b10 v27
b01 v28
b00000001 v29
b0001 v30
b0001 v31
b01 v32
b00 v33
b1 v34
b00000001 v35
b0 v36
b0 v37
b0001 v38
b0 v39
b0 v40
b0001 v41
b0 v42
b0 v43
b01 v44
b0 v45
b0 v46
b00 v47
b0 v48
#11
b1 v0
b0 v1
b1 v2
b0 v3
b0 v4
b0000000000000101 v5
b0 v6
b1 v7
b0 v8
b01 v9
b00000001 v10
b0010 v11
b0001 v12
b01 v13
b00000001 v14
b0010 v15
b0001 v16
b01 v17
b0000000000000101 v18
b1 v19
b0 v20
b0 v21
b0 v22
b0 v23
b00000010 v24
b0010 v25
b0010 v26
b10 v27
b01 v28
b00000001 v29
b0001 v30
b0001 v31
b01 v32
b00 v33
b0 v34
b00000001 v35
b0 v36
b1 v37
b0010 v38
b0 v39
b0 v40
b0001 v41
b0 v42
b0 v43
b01 v44
b0 v45
b1 v46
b01 v47
b0 v48
#12
b0 v0
b0 v1
b1 v2
b0 v3
b0 v4
b0000000000000101 v5
b0 v6
b1 v7
b0 v8
b01 v9
b00000001 v10
b0010 v11
b0001 v12
b01 v13
b00000001 v14
b0010 v15
b0001 v16
b01 v17
b0000000000000101 v18
b0 v19
b1 v20
b0 v21
b0 v22
b1 v23
b00000010 v24
b0011 v25
b0010 v26
b10 v27
b10 v28
b00000001 v29
b0010 v30
b0001 v31
b01 v32
b01 v33
b0 v34
b00000001 v35
b0 v36
b1 v37
b0010 v38
b0 v39
b0 v40
b0001 v41
b0 v42
b0 v43
b01 v44
b0 v45
b0 v46
b01 v47
b0 v48
#13
b1 v0
b0 v1
b0 v2
b1 v3
b0 v4
b0000000000000110 v5
b0 v6
b1 v7
b0 v8
b10 v9
b00000001 v10
b0010 v11
b0010 v12
b01 v13
b00000001 v14
b0010 v15
b0010 v16
b01 v17
b0000000000000110 v18
b0 v19
b1 v20
b0 v21
b0 v22
b0 v23
b00000010 v24
b0011 v25
b0010 v26
b10 v27
b10 v28
b00000001 v29
b0010 v30
b0001 v31
b01 v32
b01 v33
b0 v34
b00000001 v35
b0 v36
b0 v37
b0010 v38
b0 v39
b1 v40
b0010 v41
b0 v42
b0 v43
b01 v44
b0 v45
b1 v46
b10 v47
b0 v48
#14
b0 v0
b0 v1
b0 v2
b1 v3
b0 v4
b0000000000000110 v5
b0 v6
b1 v7
b0 v8
b10 v9
b00000001 v10
b0010 v11
b0010 v12
b01 v13
b00000001 v14
b0010 v15
b0010 v16
b01 v17
b0000000000000110 v18
b0 v19
b0 v20
b1 v21
b0 v22
b1 v23
b00000010 v24
b0011 v25
b0011 v26
b10 v27
b11 v28
b00000001 v29
b0010 v30
b0010 v31
b01 v32
b10 v33
b0 v34
b00000001 v35
b0 v36
b0 v37
b0010 v38
b0 v39
b1 v40
b0010 v41
b0 v42
b0 v43
b01 v44
b0 v45
b0 v46
b10 v47
b0 v48
#15
b1 v0
b0 v1
b0 v2
b0 v3
b1 v4
b0000000000000111 v5
b0 v6
b1 v7
b0 v8
b11 v9
b00000001 v10
b0010 v11
b0010 v12
b10 v13
b00000001 v14
b0010 v15
b0010 v16
b10 v17
b0000000000000111 v18
b0 v19
b0 v20
b1 v21
b0 v22
b0 v23
b00000010 v24
b0011 v25
b0011 v26
b10 v27
b11 v28
b00000001 v29
b0010 v30
b0010 v31
b01 v32
b10 v33
b0 v34
b00000001 v35
b0 v36
b0 v37
b0010 v38
b0 v39
b0 v40
b0010 v41
b0 v42
b1 v43
b10 v44
b0 v45
b1 v46
b11 v47
b0 v48
#16
b0 v0
b0 v1
b0 v2
b0 v3
b1 v4
b0000000000000111 v5
b0 v6
b1 v7
b0 v8
b11 v9
b00000001 v10
b0010 v11
b0010 v12
b10 v13
b00000001 v14
b0010 v15
b0010 v16
b10 v17
b0000000000000111 v18
b0 v19
b0 v20
b0 v21
b1 v22
b1 v23
b00000010 v24
b0011 v25
b0011 v26
b11 v27
b00 v28
b00000001 v29
b0010 v30
b0010 v31
b10 v32
b11 v33
b0 v34
b00000001 v35
b0 v36
b0 v37
b0010 v38
b0 v39
b0 v40
b0010 v41
b0 v42
b1 v43
b10 v44
b0 v45
b0 v46
b11 v47
b0 v48
#17
b1 v0
b1 v1
b0 v2
b0 v3
b0 v4
b0000000000001000 v5
b0 v6
b1 v7
b0 v8
b00 v9
b00000010 v10
b0010 v11
b0010 v12
b10 v13
b00000010 v14
b0010 v15
b0010 v16
b10 v17
b0000000000001000 v18
b0 v19
b0 v20
b0 v21
b1 v22
b0 v23
b00000010 v24
b0011 v25
b0011 v26
b11 v27
b00 v28
b00000001 v29
b0010 v30
b0010 v31
b10 v32
b11 v33
b1 v34
b00000010 v35
b0 v36
b0 v37
b0010 v38
b0 v39
b0 v40
b0010 v41
b0 v42
b0 v43
b10 v44
b0 v45
b1 v46
b00 v47
b0 v48
#18
b0 v0
b1 v1
b0 v2
b0 v3
b0 v4
b0000000000001000 v5
b0 v6
b1 v7
b0 v8
b00 v9
b00000010 v10
b0010 v11
b0010 v12
b10 v13
b00000010 v14
b0010 v15
b0010 v16
b10 v17
b0000000000001000 v18
b1 v19
b0 v20
b0 v21
b0 v22
b1 v23
b00000011 v24
b0011 v25
b0011 v26
b11 v27
b01 v28
b00000010 v29
b0010 v30
b0010 v31
b10 v32
b00 v33
b1 v34
b00000010 v35
b0 v36
b0 v37
b0010 v38
b0 v39
b0 v40
b0010 v41
b0 v42
b0 v43
b10 v44
b0 v45
b0 v46
b00 v47
b0 v48
#19
b1 v0
b0 v1
b1 v2
b0 v3
b0 v4
b0000000000001001 v5
b0 v6
b1 v7
b0 v8
b01 v9
b00000010 v10
b0011 v11
b0010 v12
b10 v13
b00000010 v14
b0011 v15
b0010 v16
b10 v17
b0000000000001001 v18
b1 v19
b0 v20
b0 v21
b0 v22
b0 v23
b00000011 v24
b0011 v25
b0011 v26
b11 v27
b01 v28
b00000010 v29
b0010 v30
b0010 v31
b10 v32
b00 v33
b0 v34
b00000010 v35
b0 v36
b1 v37
b0011 v38
b0 v39
b0 v40
b0010 v41
b0 v42
b0 v43
b10 v44
b0 v45
b1 v46
b01 v47
b0 v48
#20
b0 v0
b0 v1
b1 v2
b0 v3
b0 v4
b0000000000001001 v5
b0 v6
b1 v7
b0 v8
b01 v9
b00000010 v10
b0011 v11
b0010 v12
b10 v13
b00000010 v14
b0011 v15
b0010 v16
b10 v17
b0000000000001001 v18
b0 v19
b1 v20
b0 v21
b0 v22
b1 v23
b00000011 v24
b0100 v25
b0011 v26
b11 v27
b10 v28
b00000010 v29
b0011 v30
b0010 v31
b10 v32
b01 v33
b0 v34
b00000010 v35
b0 v36
b1 v37
b0011 v38
b0 v39
b0 v40
b0010 v41
b0 v42
b0 v43
b10 v44
b0 v45
b0 v46
b01 v47
b0 v48
